{
    "version": "0.1.0",
    "configurations": [
          {
            "name": "Launch index.html",
            "type": "chrome",
            "request": "launch",
            "file": "${workspaceRoot}/index.html",
            "userDataDir": "${workspaceRoot}/out/chrome",
            "runtimeExecutable": "/Applications/Google Chrome.app/Contents/MacOS/Google Chrome"
        }
    ]
}